<?xml version="1.0" encoding="utf-8"?>
<!-- Generator: Adobe Illustrator 25.0.0, SVG Export Plug-In . SVG Version: 6.00 Build 0)  -->
<svg version="1.1" id="Layer_1" xmlns="http://www.w3.org/2000/svg" xmlns:xlink="http://www.w3.org/1999/xlink" x="0px" y="0px"
	 viewBox="0 0 104 104.6" style="enable-background:new 0 0 104 104.6;" xml:space="preserve">
<style type="text/css">
	.st0{fill:#3D9AE2;}
	.st1{fill:#FFD422;}
	.st2{fill:#FF6243;}
	.st3{fill:#FFA733;}
	.st4{fill:#E6E7E8;}
	.st5{fill:#78B9EB;}
	.st6{fill:#787680;}
</style>
<g id="Tracking">
	<path class="st0" d="M71.6,59.8c-0.8,0-1.5-0.7-1.5-1.5V44.8c0-0.8,0.7-1.5,1.5-1.5h10.5L77,38.1c-0.6-0.6-1.3-0.9-2.1-0.9H20.4
		v36.1c0,1.7,1.4,3,3,3h69.3c1.7,0,3-1.4,3-3V59.8H71.6z"/>
	<path class="st1" d="M44.5,37.2c0,10-8.1,18.1-18.1,18.1c-2.1,0-4.1-0.3-6-1C11,50.9,6,40.6,9.4,31.2s13.7-14.3,23.1-11
		C39.6,22.7,44.5,29.6,44.5,37.2z"/>
	<path class="st2" d="M35.4,34.2c0,6-9,15.1-9,15.1s-9-9-9-15.1c0-5,4-9,9-9S35.4,29.2,35.4,34.2z"/>
	<circle class="st3" cx="26.4" cy="34.2" r="3"/>
	<path class="st4" d="M95.7,56.8v3H71.6c-0.8,0-1.5-0.7-1.5-1.5V44.8c0-0.8,0.7-1.5,1.5-1.5h10.5L95.7,56.8z"/>
	<path class="st5" d="M20.4,62.8h75.3l0,0v10.5c0,1.7-1.3,3-3,3H23.4c-1.7,0-3-1.3-3-3V62.8L20.4,62.8z"/>
	<circle class="st6" cx="36.9" cy="76.4" r="9"/>
	<circle class="st6" cx="79.1" cy="76.4" r="9"/>
	<path d="M96.7,55.8L78,37.1c-0.8-0.9-2-1.3-3.2-1.3H49v3h7.5v22.6h3V38.7h15.3c0.4,0,0.8,0.2,1.1,0.4l2.6,2.6h-6.9
		c-1.7,0-3,1.3-3,3v13.6c0,1.7,1.3,3,3,3h22.6v12c0,0.8-0.7,1.5-1.5,1.5h-3.1c-0.8-5.8-6.2-9.8-11.9-8.9c-4.6,0.7-8.3,4.3-8.9,8.9
		H47.4c-0.8-5.8-6.2-9.8-11.9-8.9c-4.6,0.7-8.3,4.3-8.9,8.9h-3.1c-0.8,0-1.5-0.7-1.5-1.5V59.8h-3v13.6c0,2.5,2,4.5,4.5,4.5h3.1
		c0.3,2.3,1.4,4.4,3.1,6H6.8v3h72.3c5.2,0,9.7-3.9,10.4-9h3.1c2.5,0,4.5-2,4.5-4.5V56.8C97.2,56.4,97,56,96.7,55.8z M29.4,76.4
		c0-4.2,3.4-7.5,7.5-7.5s7.5,3.4,7.5,7.5c0,4.2-3.4,7.5-7.5,7.5C32.8,83.9,29.4,80.6,29.4,76.4z M44.3,83.9c1.7-1.6,2.7-3.7,3.1-6
		h21.3c0.3,2.3,1.4,4.4,3.1,6H44.3z M79.1,83.9c-4.2,0-7.5-3.4-7.5-7.5c0-4.2,3.4-7.5,7.5-7.5c4.2,0,7.5,3.4,7.5,7.5
		C86.6,80.6,83.3,83.9,79.1,83.9z M71.6,58.3V44.8h9.9l12.7,12.7v0.9H71.6z"/>
	<rect x="35.4" y="74.9" width="3" height="3"/>
	<rect x="77.6" y="74.9" width="3" height="3"/>
	<rect x="6.8" y="70.4" width="7.5" height="3"/>
	<rect x="9.8" y="64.3" width="4.5" height="3"/>
	<rect x="11.3" y="58.3" width="3" height="3"/>
	<path d="M26.4,56.8c10.8,0,19.6-8.8,19.6-19.6s-8.8-19.6-19.6-19.6S6.8,26.4,6.8,37.2C6.8,48,15.6,56.8,26.4,56.8z M26.4,20.7
		c9.1,0,16.6,7.4,16.6,16.6s-7.4,16.6-16.6,16.6S9.8,46.4,9.8,37.2C9.8,28.1,17.3,20.7,26.4,20.7z"/>
	<path d="M26.4,50.8c0.4,0,0.8-0.2,1.1-0.4c1-1,9.5-9.7,9.5-16.1c0-5.8-4.7-10.5-10.5-10.5s-10.5,4.7-10.5,10.5
		c0,6.5,8.5,15.2,9.5,16.1C25.6,50.6,26,50.8,26.4,50.8z M26.4,26.7c4.2,0,7.5,3.4,7.5,7.5c0,3.9-4.7,9.8-7.5,12.9
		c-2.8-3-7.5-9-7.5-12.9C18.9,30.1,22.2,26.7,26.4,26.7z"/>
	<path d="M30.9,34.2c0-2.5-2-4.5-4.5-4.5s-4.5,2-4.5,4.5c0,2.5,2,4.5,4.5,4.5S30.9,36.7,30.9,34.2z M24.9,34.2
		c0-0.8,0.7-1.5,1.5-1.5c0.8,0,1.5,0.7,1.5,1.5c0,0.8-0.7,1.5-1.5,1.5C25.6,35.7,24.9,35.1,24.9,34.2z"/>
	<rect x="64" y="64.3" width="6" height="3"/>
</g>
</svg>
