<?xml version="1.0" encoding="utf-8"?>
<!-- Generator: Adobe Illustrator 25.0.0, SVG Export Plug-In . SVG Version: 6.00 Build 0)  -->
<svg version="1.1" id="Layer_1" xmlns="http://www.w3.org/2000/svg" xmlns:xlink="http://www.w3.org/1999/xlink" x="0px" y="0px"
	 viewBox="0 0 250 104.6" style="enable-background:new 0 0 250 104.6;" xml:space="preserve">
<style type="text/css">
	.st0{fill:#3D9AE2;}
	.st1{fill:#FFD422;}
	.st2{fill:#FF6243;}
	.st3{fill:#FFA733;}
	.st4{fill:#E6E7E8;}
	.st5{fill:#78B9EB;}
	.st6{fill:#787680;}
</style>
<g id="Tracking">
	<path class="st0" d="M153.3,63.2c-1.2,0-2.2-1-2.2-2.2V41.4c0-1.2,1-2.2,2.2-2.2h15.2l-7.4-7.4c-0.8-0.8-1.9-1.3-3.1-1.3H79.3v52.2
		c0,2.4,1.9,4.3,4.3,4.3h100c2.4,0,4.3-1.9,4.3-4.3V63.2H153.3z"/>
	<path class="st1" d="M114.1,30.6c0,14.4-11.7,26.1-26.1,26.1c-3,0-5.9-0.5-8.7-1.5c-13.6-4.8-20.7-19.7-15.9-33.3S83.2,1.2,96.7,6
		C107.2,9.6,114.1,19.5,114.1,30.6z"/>
	<path class="st2" d="M101.1,26.2c0,8.7-13,21.7-13,21.7s-13-13-13-21.7c0-7.2,5.8-13,13-13S101.1,19,101.1,26.2z"/>
	<circle class="st3" cx="88" cy="26.2" r="4.3"/>
	<path class="st4" d="M188,58.8v4.3h-34.8c-1.2,0-2.2-1-2.2-2.2V41.4c0-1.2,1-2.2,2.2-2.2h15.2L188,58.8z"/>
	<path class="st5" d="M79.3,67.5H188l0,0v15.2c0,2.4-1.9,4.3-4.3,4.3h-100c-2.4,0-4.3-1.9-4.3-4.3V67.5L79.3,67.5z"/>
	<circle class="st6" cx="103.3" cy="87.1" r="13"/>
	<circle class="st6" cx="164.1" cy="87.1" r="13"/>
	<path d="M189.6,57.3l-27-27c-1.2-1.2-2.9-1.9-4.6-1.9h-37.3v4.3h10.9v32.6h4.3V32.7H158c0.6,0,1.1,0.2,1.5,0.6l3.7,3.7h-10
		c-2.4,0-4.3,1.9-4.3,4.3V61c0,2.4,1.9,4.3,4.3,4.3h32.6v17.4c0,1.2-1,2.2-2.2,2.2h-4.5C178,76.6,170.3,70.8,162,72
		c-6.7,1-11.9,6.2-12.9,12.9h-30.8c-1.2-8.3-8.9-14.1-17.2-12.9c-6.7,1-11.9,6.2-12.9,12.9h-4.5c-1.2,0-2.2-1-2.2-2.2V63.2h-4.3
		v19.6c0,3.6,2.9,6.5,6.5,6.5h4.5c0.5,3.3,2,6.4,4.4,8.7H59.8v4.3h104.3c7.6,0,14-5.6,15-13h4.5c3.6,0,6.5-2.9,6.5-6.5V58.8
		C190.2,58.2,190,57.7,189.6,57.3z M92.4,87.1c0-6,4.9-10.9,10.9-10.9c6,0,10.9,4.9,10.9,10.9S109.3,98,103.3,98
		C97.3,97.9,92.4,93.1,92.4,87.1z M113.9,98c2.4-2.3,3.9-5.4,4.4-8.7h30.8c0.5,3.3,2,6.4,4.4,8.7H113.9z M164.1,98
		c-6,0-10.9-4.9-10.9-10.9s4.9-10.9,10.9-10.9S175,81.1,175,87.1C175,93.1,170.1,97.9,164.1,98z M153.3,61V41.4h14.3l18.3,18.3V61
		H153.3z"/>
	<rect x="101.1" y="84.9" width="4.3" height="4.3"/>
	<rect x="162" y="84.9" width="4.3" height="4.3"/>
	<rect x="59.8" y="78.4" width="10.9" height="4.3"/>
	<rect x="64.1" y="69.7" width="6.5" height="4.3"/>
	<rect x="66.3" y="61" width="4.3" height="4.3"/>
	<path d="M88,58.8c15.6,0,28.3-12.7,28.3-28.3S103.7,2.3,88,2.3S59.8,15,59.8,30.6C59.8,46.2,72.4,58.8,88,58.8z M88,6.6
		c13.2,0,23.9,10.7,23.9,23.9S101.3,54.5,88,54.5S64.1,43.8,64.1,30.6C64.1,17.4,74.8,6.7,88,6.6z"/>
	<path d="M88,50.1c0.6,0,1.1-0.2,1.5-0.6c1.4-1.4,13.7-14,13.7-23.3c0-8.4-6.8-15.2-15.2-15.2s-15.2,6.8-15.2,15.2
		c0,9.3,12.3,21.9,13.7,23.3C86.9,49.9,87.5,50.1,88,50.1z M88,15.3c6,0,10.9,4.9,10.9,10.9c0,5.6-6.8,14.2-10.9,18.6
		c-4-4.4-10.9-13-10.9-18.6C77.2,20.2,82,15.4,88,15.3z"/>
	<path d="M94.6,26.2c0-3.6-2.9-6.5-6.5-6.5s-6.5,2.9-6.5,6.5s2.9,6.5,6.5,6.5S94.6,29.8,94.6,26.2z M85.9,26.2c0-1.2,1-2.2,2.2-2.2
		c1.2,0,2.2,1,2.2,2.2c0,1.2-1,2.2-2.2,2.2C86.8,28.4,85.9,27.4,85.9,26.2z"/>
	<rect x="142.4" y="69.7" width="8.7" height="4.3"/>
</g>
</svg>
